{    
    "skills": {
	"applications": [
	    "AWS",
	    "CMake",
	    "Git",
	    "Docker",
	    "Docker-Compose",
	    "Kubernetes",
	    "ROS/ROS2",
	    "Django",
	    "Flask",
	    "DDS",
	    "DDS-XRCE",
	    "KiCAD",
	    "Autodesk Eagle"
	],
	"languanges": [
	    "Python",
	    "Kotlin",
	    "typescript",
	    "Rust",
	    "C/C++",
	    "Java",
	    "Verilog",
	    "\\LaTeX",
	    "Ruby"
	],
	"keywords": [
	    "Platform Engineering",
	    "Devops",
	    "Infrastructure",
	    "Operational Excellence",
	    "FPGA",
	    "Eagle Scout",
	    "FIRST Alumni"
	]
    }
}
